{
  "id": "91193693",
  "premium": false,
  "name": "Backend-разработчик",
  "department": null,
  "has_test": false,
  "response_letter_required": false,
  "area": {
    "id": "160",
    "name": "Алматы",
    "url": "https://api.hh.ru/areas/160"
  },
  "salary": {
    "from": 100000,
    "to": null,
    "currency": "KZT",
    "gross": false
  },
  "type": {
    "id": "open",
    "name": "Открытая"
  },
  "address": null,
  "response_url": null,
  "sort_point_distance": null,
  "published_at": "2024-01-05T07:58:18+0300",
  "created_at": "2024-01-05T07:58:18+0300",
  "archived": false,
  "apply_alternate_url": "https://hh.ru/applicant/vacancy_response?vacancyId=91193693",
  "insider_interview": null,
  "url": "https://api.hh.ru/vacancies/91193693?host=hh.ru",
  "alternate_url": "https://hh.ru/vacancy/91193693",
  "relations": [],
  "employer": {
    "id": "5527790",
    "name": "Qamqor Kazakhstan",
    "url": "https://api.hh.ru/employers/5527790",
    "alternate_url": "https://hh.ru/employer/5527790",
    "logo_urls": null,
    "vacancies_url": "https://api.hh.ru/vacancies?employer_id=5527790",
    "accredited_it_employer": false,
    "trusted": true
  },
  "snippet": {
    "requirement": "Опыт работы не менее 1 года в разработке. Знание <highlighttext>Java</highlighttext> SE 8+. Хорошее знание и опыт работы со SpringBoot...",
    "responsibility": "Разработка новых микросервисов (приложений) и развитие/рефакторинг существующих на Spring Boot. Конфигурирование баз данных под потребности проекта. Написание чистого и..."
  },
  "contacts": null,
  "schedule": {
    "id": "fullDay",
    "name": "Полный день"
  },
  "working_days": [],
  "working_time_intervals": [],
  "working_time_modes": [],
  "accept_temporary": false,
  "professional_roles": [
    {
      "id": "96",
      "name": "Программист, разработчик"
    }
  ],
  "accept_incomplete_resumes": false,
  "experience": {
    "id": "between1And3",
    "name": "От 1 года до 3 лет"
  },
  "employment": {
    "id": "full",
    "name": "Полная занятость"
  },
  "adv_response_url": null,
  "is_adv_vacancy": false,
  "adv_context": null
}


